%YAML 1.1
%TAG !u! tag:unity3d.com,2011:
--- !u!114 &11400000
MonoBehaviour:
  m_ObjectHideFlags: 0
  m_CorrespondingSourceObject: {fileID: 0}
  m_PrefabInternal: {fileID: 0}
  m_GameObject: {fileID: 0}
  m_Enabled: 1
  m_EditorHideFlags: 0
  m_Script: {fileID: 11500000, guid: 4cc1ced56af4f0d4eb9f9a8b6ddc5682, type: 3}
  m_Name: MediumCoins
  m_EditorClassIdentifier: 
  m_name: Small Coins
  m_icon: {fileID: 21300000, guid: 9e7543e4640a6d347a8092dab31de798, type: 3}
  m_goodCurrency: 0
  m_goodAmount: 20
  m_price: 0.99
